{
  "openapi": "3.0.1",
  "info": {
    "title": "XMPP Chat Extension management API",
    "description": "Used to create new account on XMPP chat server, send message to XMPP user",
    "version": "0.1"
  },
  "servers": [
    {
      "url": "https://wchat.vn"
    }
  ],
  "paths": {
    "/api/v1/mobile/get_extension": {
      "post": {
        "description": "Auto generated using Swagger Inspector",
        "requestBody": {
          "content": {
            "application/json": {
              "schema": {
                "$ref": "#/components/schemas/mobile_get_extension_body"
              },
              "examples": {
                "0": {
                  "value": "{\n    \"from\": \"nipt@fpt.com.vn\",\n    \"app_name\": \"MYTINPNC_ANDROID\",\n    \"to\": \"anhnt232@fpt.com.vn\"\n}"
                }
              }
            }
          }
        },
        "responses": {
          "200": {
            "description": "Auto generated using Swagger Inspector",
            "content": {
              "text/html; charset=utf-8": {
                "schema": {
                  "type": "string"
                },
                "examples": {}
              }
            }
          }
        },
        "servers": [
          {
            "url": "https://wchat.vn"
          }
        ]
      },
      "servers": [
        {
          "url": "https://wchat.vn"
        }
      ]
    },
    "/api/v1/submit": {
      "post": {
        "description": "Auto generated using Swagger Inspector",
        "requestBody": {
          "content": {
            "application/json": {
              "schema": {
                "$ref": "#/components/schemas/v1_submit_body"
              },
              "examples": {
                "0": {
                  "value": "{\n    \"sender_info\": {\n        \"username\": \"system\",\n        \"email\": \"system\"\n    },\n    \"receiver_extension\": {\n        \"username\": \"anhnt232_fpt.com.vn\",\n        \"sip_domain\": \"wchat.vn\"\n    },\n    \"message\": \"this is a test message\"\n}"
                }
              }
            }
          }
        },
        "responses": {
          "200": {
            "description": "Auto generated using Swagger Inspector",
            "content": {
              "text/html; charset=utf-8": {
                "schema": {
                  "type": "string"
                },
                "examples": {}
              }
            }
          }
        },
        "servers": [
          {
            "url": "https://wchat.vn"
          }
        ]
      },
      "servers": [
        {
          "url": "https://wchat.vn"
        }
      ]
    },
    "/api/v1/get_extension": {
      "post": {
        "description": "Auto generated using Swagger Inspector",
        "requestBody": {
          "content": {
            "application/json": {
              "schema": {
                "$ref": "#/components/schemas/v1_get_extension_body"
              },
              "examples": {
                "0": {
                  "value": "{\n    \"from\": \"nipt@fpt.com.vn\",\n    \"to\": \"anhnt232@fpt.com.vn\"\n}"
                }
              }
            }
          }
        },
        "responses": {
          "200": {
            "description": "Auto generated using Swagger Inspector",
            "content": {
              "text/html; charset=utf-8": {
                "schema": {
                  "type": "string"
                },
                "examples": {}
              }
            }
          }
        },
        "servers": [
          {
            "url": "https://wchat.vn"
          }
        ]
      },
      "servers": [
        {
          "url": "https://wchat.vn"
        }
      ]
    }
  },
  "components": {
    "schemas": {
      "mobile_get_extension_body": {
        "type": "object",
        "properties": {
          "app_name": {
            "type": "string"
          },
          "from": {
            "type": "string"
          },
          "to": {
            "type": "string"
          }
        }
      },
      "apiv1submit_receiver_extension": {
        "type": "object",
        "properties": {
          "username": {
            "type": "string"
          },
          "sip_domain": {
            "type": "string"
          }
        },
        "example": null
      },
      "apiv1submit_sender_info": {
        "type": "object",
        "properties": {
          "email": {
            "type": "string"
          },
          "username": {
            "type": "string"
          }
        },
        "example": null
      },
      "v1_submit_body": {
        "type": "object",
        "properties": {
          "receiver_extension": {
            "$ref": "#/components/schemas/apiv1submit_receiver_extension"
          },
          "sender_info": {
            "$ref": "#/components/schemas/apiv1submit_sender_info"
          },
          "message": {
            "type": "string"
          }
        }
      },
      "v1_get_extension_body": {
        "type": "object",
        "properties": {
          "from": {
            "type": "string"
          },
          "to": {
            "type": "string"
          }
        }
      }
    }
  }
}